CRITICAL - 2020-11-30 20:53:43 --> Undefined variable: model
#0 C:\wamp64\www\fretrat_website\fretrato-website\app\Controllers\Pages.php(83): CodeIgniter\Debug\Exceptions->errorHandler(8, 'Undefined varia...', 'C:\\wamp64\\www\\f...', 83, Array)
#1 C:\wamp64\www\fretrat_website\fretrato-website\system\CodeIgniter.php(918): App\Controllers\Pages->property_list()
#2 C:\wamp64\www\fretrat_website\fretrato-website\system\CodeIgniter.php(404): CodeIgniter\CodeIgniter->runController(Object(App\Controllers\Pages))
#3 C:\wamp64\www\fretrat_website\fretrato-website\system\CodeIgniter.php(312): CodeIgniter\CodeIgniter->handleRequest(NULL, Object(Config\Cache), false)
#4 C:\wamp64\www\fretrat_website\fretrato-website\public\index.php(45): CodeIgniter\CodeIgniter->run()
#5 {main}
CRITICAL - 2020-11-30 20:53:54 --> Undefined variable: banner_title
#0 C:\wamp64\www\fretrat_website\fretrato-website\app\Views\Includes\sub_banner.php(6): CodeIgniter\Debug\Exceptions->errorHandler(8, 'Undefined varia...', 'C:\\wamp64\\www\\f...', 6, Array)
#1 C:\wamp64\www\fretrat_website\fretrato-website\system\View\View.php(246): include('C:\\wamp64\\www\\f...')
#2 C:\wamp64\www\fretrat_website\fretrato-website\system\View\View.php(525): CodeIgniter\View\View->render('Includes/sub_ba...', NULL, true)
#3 C:\wamp64\www\fretrat_website\fretrato-website\app\Views\property_list.php(2): CodeIgniter\View\View->include('Includes/sub_ba...')
#4 C:\wamp64\www\fretrat_website\fretrato-website\system\View\View.php(246): include('C:\\wamp64\\www\\f...')
#5 C:\wamp64\www\fretrat_website\fretrato-website\system\Common.php(1119): CodeIgniter\View\View->render('property_list', Array, true)
#6 C:\wamp64\www\fretrat_website\fretrato-website\app\Controllers\BaseController.php(82): view('property_list', Array)
#7 C:\wamp64\www\fretrat_website\fretrato-website\app\Controllers\Pages.php(89): App\Controllers\BaseController->basic_page('property_list', Array)
#8 C:\wamp64\www\fretrat_website\fretrato-website\system\CodeIgniter.php(918): App\Controllers\Pages->property_list()
#9 C:\wamp64\www\fretrat_website\fretrato-website\system\CodeIgniter.php(404): CodeIgniter\CodeIgniter->runController(Object(App\Controllers\Pages))
#10 C:\wamp64\www\fretrat_website\fretrato-website\system\CodeIgniter.php(312): CodeIgniter\CodeIgniter->handleRequest(NULL, Object(Config\Cache), false)
#11 C:\wamp64\www\fretrat_website\fretrato-website\public\index.php(45): CodeIgniter\CodeIgniter->run()
#12 {main}
CRITICAL - 2020-11-30 20:57:40 --> Call to a member function simpleLinks() on null
#0 C:\wamp64\www\fretrat_website\fretrato-website\system\View\View.php(246): include()
#1 C:\wamp64\www\fretrat_website\fretrato-website\system\Common.php(1119): CodeIgniter\View\View->render('property_list', Array, true)
#2 C:\wamp64\www\fretrat_website\fretrato-website\app\Controllers\BaseController.php(82): view('property_list', Array)
#3 C:\wamp64\www\fretrat_website\fretrato-website\app\Controllers\Pages.php(86): App\Controllers\BaseController->basic_page('property_list', Array)
#4 C:\wamp64\www\fretrat_website\fretrato-website\system\CodeIgniter.php(918): App\Controllers\Pages->property_list()
#5 C:\wamp64\www\fretrat_website\fretrato-website\system\CodeIgniter.php(404): CodeIgniter\CodeIgniter->runController(Object(App\Controllers\Pages))
#6 C:\wamp64\www\fretrat_website\fretrato-website\system\CodeIgniter.php(312): CodeIgniter\CodeIgniter->handleRequest(NULL, Object(Config\Cache), false)
#7 C:\wamp64\www\fretrat_website\fretrato-website\public\index.php(45): CodeIgniter\CodeIgniter->run()
#8 {main}
CRITICAL - 2020-11-30 20:57:54 --> Call to a member function links() on null
#0 C:\wamp64\www\fretrat_website\fretrato-website\system\View\View.php(246): include()
#1 C:\wamp64\www\fretrat_website\fretrato-website\system\Common.php(1119): CodeIgniter\View\View->render('property_list', Array, true)
#2 C:\wamp64\www\fretrat_website\fretrato-website\app\Controllers\BaseController.php(82): view('property_list', Array)
#3 C:\wamp64\www\fretrat_website\fretrato-website\app\Controllers\Pages.php(86): App\Controllers\BaseController->basic_page('property_list', Array)
#4 C:\wamp64\www\fretrat_website\fretrato-website\system\CodeIgniter.php(918): App\Controllers\Pages->property_list()
#5 C:\wamp64\www\fretrat_website\fretrato-website\system\CodeIgniter.php(404): CodeIgniter\CodeIgniter->runController(Object(App\Controllers\Pages))
#6 C:\wamp64\www\fretrat_website\fretrato-website\system\CodeIgniter.php(312): CodeIgniter\CodeIgniter->handleRequest(NULL, Object(Config\Cache), false)
#7 C:\wamp64\www\fretrat_website\fretrato-website\public\index.php(45): CodeIgniter\CodeIgniter->run()
#8 {main}
CRITICAL - 2020-11-30 20:58:14 --> Call to a member function links() on null
#0 C:\wamp64\www\fretrat_website\fretrato-website\system\View\View.php(246): include()
#1 C:\wamp64\www\fretrat_website\fretrato-website\system\Common.php(1119): CodeIgniter\View\View->render('property_list', Array, true)
#2 C:\wamp64\www\fretrat_website\fretrato-website\app\Controllers\BaseController.php(82): view('property_list', Array)
#3 C:\wamp64\www\fretrat_website\fretrato-website\app\Controllers\Pages.php(87): App\Controllers\BaseController->basic_page('property_list', Array)
#4 C:\wamp64\www\fretrat_website\fretrato-website\system\CodeIgniter.php(918): App\Controllers\Pages->property_list()
#5 C:\wamp64\www\fretrat_website\fretrato-website\system\CodeIgniter.php(404): CodeIgniter\CodeIgniter->runController(Object(App\Controllers\Pages))
#6 C:\wamp64\www\fretrat_website\fretrato-website\system\CodeIgniter.php(312): CodeIgniter\CodeIgniter->handleRequest(NULL, Object(Config\Cache), false)
#7 C:\wamp64\www\fretrat_website\fretrato-website\public\index.php(45): CodeIgniter\CodeIgniter->run()
#8 {main}
CRITICAL - 2020-11-30 20:59:29 --> Argument 1 passed to CodeIgniter\Database\BaseResult::getResult() must be of the type string, null given, called in C:\wamp64\www\fretrat_website\fretrato-website\system\Model.php on line 464
#0 C:\wamp64\www\fretrat_website\fretrato-website\system\Model.php(464): CodeIgniter\Database\BaseResult->getResult(NULL)
#1 C:\wamp64\www\fretrat_website\fretrato-website\system\Model.php(1184): CodeIgniter\Model->findAll(10, 0)
#2 C:\wamp64\www\fretrat_website\fretrato-website\app\Controllers\Pages.php(83): CodeIgniter\Model->paginate(10)
#3 C:\wamp64\www\fretrat_website\fretrato-website\system\CodeIgniter.php(918): App\Controllers\Pages->property_list()
#4 C:\wamp64\www\fretrat_website\fretrato-website\system\CodeIgniter.php(404): CodeIgniter\CodeIgniter->runController(Object(App\Controllers\Pages))
#5 C:\wamp64\www\fretrat_website\fretrato-website\system\CodeIgniter.php(312): CodeIgniter\CodeIgniter->handleRequest(NULL, Object(Config\Cache), false)
#6 C:\wamp64\www\fretrat_website\fretrato-website\public\index.php(45): CodeIgniter\CodeIgniter->run()
#7 {main}
CRITICAL - 2020-11-30 21:00:05 --> Argument 1 passed to CodeIgniter\Database\BaseResult::getResult() must be of the type string, null given, called in C:\wamp64\www\fretrat_website\fretrato-website\system\Model.php on line 464
#0 C:\wamp64\www\fretrat_website\fretrato-website\system\Model.php(464): CodeIgniter\Database\BaseResult->getResult(NULL)
#1 C:\wamp64\www\fretrat_website\fretrato-website\system\Model.php(1184): CodeIgniter\Model->findAll(10, 0)
#2 C:\wamp64\www\fretrat_website\fretrato-website\app\Controllers\Pages.php(83): CodeIgniter\Model->paginate(10)
#3 C:\wamp64\www\fretrat_website\fretrato-website\system\CodeIgniter.php(918): App\Controllers\Pages->property_list()
#4 C:\wamp64\www\fretrat_website\fretrato-website\system\CodeIgniter.php(404): CodeIgniter\CodeIgniter->runController(Object(App\Controllers\Pages))
#5 C:\wamp64\www\fretrat_website\fretrato-website\system\CodeIgniter.php(312): CodeIgniter\CodeIgniter->handleRequest(NULL, Object(Config\Cache), false)
#6 C:\wamp64\www\fretrat_website\fretrato-website\public\index.php(45): CodeIgniter\CodeIgniter->run()
#7 {main}
CRITICAL - 2020-11-30 21:00:26 --> Argument 4 passed to CodeIgniter\Model::paginate() must be of the type integer, string given, called in C:\wamp64\www\fretrat_website\fretrato-website\app\Controllers\Pages.php on line 83
#0 C:\wamp64\www\fretrat_website\fretrato-website\app\Controllers\Pages.php(83): CodeIgniter\Model->paginate(10, '0', 1, 'order_by')
#1 C:\wamp64\www\fretrat_website\fretrato-website\system\CodeIgniter.php(918): App\Controllers\Pages->property_list()
#2 C:\wamp64\www\fretrat_website\fretrato-website\system\CodeIgniter.php(404): CodeIgniter\CodeIgniter->runController(Object(App\Controllers\Pages))
#3 C:\wamp64\www\fretrat_website\fretrato-website\system\CodeIgniter.php(312): CodeIgniter\CodeIgniter->handleRequest(NULL, Object(Config\Cache), false)
#4 C:\wamp64\www\fretrat_website\fretrato-website\public\index.php(45): CodeIgniter\CodeIgniter->run()
#5 {main}
CRITICAL - 2020-11-30 21:00:43 --> Argument 1 passed to CodeIgniter\Database\BaseResult::getResult() must be of the type string, null given, called in C:\wamp64\www\fretrat_website\fretrato-website\system\Model.php on line 464
#0 C:\wamp64\www\fretrat_website\fretrato-website\system\Model.php(464): CodeIgniter\Database\BaseResult->getResult(NULL)
#1 C:\wamp64\www\fretrat_website\fretrato-website\system\Model.php(1184): CodeIgniter\Model->findAll(10, 0)
#2 C:\wamp64\www\fretrat_website\fretrato-website\app\Controllers\Pages.php(83): CodeIgniter\Model->paginate(10)
#3 C:\wamp64\www\fretrat_website\fretrato-website\system\CodeIgniter.php(918): App\Controllers\Pages->property_list()
#4 C:\wamp64\www\fretrat_website\fretrato-website\system\CodeIgniter.php(404): CodeIgniter\CodeIgniter->runController(Object(App\Controllers\Pages))
#5 C:\wamp64\www\fretrat_website\fretrato-website\system\CodeIgniter.php(312): CodeIgniter\CodeIgniter->handleRequest(NULL, Object(Config\Cache), false)
#6 C:\wamp64\www\fretrat_website\fretrato-website\public\index.php(45): CodeIgniter\CodeIgniter->run()
#7 {main}
CRITICAL - 2020-11-30 21:00:50 --> Argument 1 passed to CodeIgniter\Database\BaseResult::getResult() must be of the type string, null given, called in C:\wamp64\www\fretrat_website\fretrato-website\system\Model.php on line 464
#0 C:\wamp64\www\fretrat_website\fretrato-website\system\Model.php(464): CodeIgniter\Database\BaseResult->getResult(NULL)
#1 C:\wamp64\www\fretrat_website\fretrato-website\system\Model.php(1184): CodeIgniter\Model->findAll(10, 0)
#2 C:\wamp64\www\fretrat_website\fretrato-website\app\Controllers\Pages.php(83): CodeIgniter\Model->paginate(10, '5')
#3 C:\wamp64\www\fretrat_website\fretrato-website\system\CodeIgniter.php(918): App\Controllers\Pages->property_list()
#4 C:\wamp64\www\fretrat_website\fretrato-website\system\CodeIgniter.php(404): CodeIgniter\CodeIgniter->runController(Object(App\Controllers\Pages))
#5 C:\wamp64\www\fretrat_website\fretrato-website\system\CodeIgniter.php(312): CodeIgniter\CodeIgniter->handleRequest(NULL, Object(Config\Cache), false)
#6 C:\wamp64\www\fretrat_website\fretrato-website\public\index.php(45): CodeIgniter\CodeIgniter->run()
#7 {main}
CRITICAL - 2020-11-30 21:00:55 --> Argument 1 passed to CodeIgniter\Database\BaseResult::getResult() must be of the type string, null given, called in C:\wamp64\www\fretrat_website\fretrato-website\system\Model.php on line 464
#0 C:\wamp64\www\fretrat_website\fretrato-website\system\Model.php(464): CodeIgniter\Database\BaseResult->getResult(NULL)
#1 C:\wamp64\www\fretrat_website\fretrato-website\system\Model.php(1184): CodeIgniter\Model->findAll(10, 0)
#2 C:\wamp64\www\fretrat_website\fretrato-website\app\Controllers\Pages.php(83): CodeIgniter\Model->paginate(10, '5', 1)
#3 C:\wamp64\www\fretrat_website\fretrato-website\system\CodeIgniter.php(918): App\Controllers\Pages->property_list()
#4 C:\wamp64\www\fretrat_website\fretrato-website\system\CodeIgniter.php(404): CodeIgniter\CodeIgniter->runController(Object(App\Controllers\Pages))
#5 C:\wamp64\www\fretrat_website\fretrato-website\system\CodeIgniter.php(312): CodeIgniter\CodeIgniter->handleRequest(NULL, Object(Config\Cache), false)
#6 C:\wamp64\www\fretrat_website\fretrato-website\public\index.php(45): CodeIgniter\CodeIgniter->run()
#7 {main}
CRITICAL - 2020-11-30 21:01:01 --> Argument 1 passed to CodeIgniter\Database\BaseResult::getResult() must be of the type string, null given, called in C:\wamp64\www\fretrat_website\fretrato-website\system\Model.php on line 464
#0 C:\wamp64\www\fretrat_website\fretrato-website\system\Model.php(464): CodeIgniter\Database\BaseResult->getResult(NULL)
#1 C:\wamp64\www\fretrat_website\fretrato-website\system\Model.php(1184): CodeIgniter\Model->findAll(10, 0)
#2 C:\wamp64\www\fretrat_website\fretrato-website\app\Controllers\Pages.php(83): CodeIgniter\Model->paginate(10, '5', 1, 1)
#3 C:\wamp64\www\fretrat_website\fretrato-website\system\CodeIgniter.php(918): App\Controllers\Pages->property_list()
#4 C:\wamp64\www\fretrat_website\fretrato-website\system\CodeIgniter.php(404): CodeIgniter\CodeIgniter->runController(Object(App\Controllers\Pages))
#5 C:\wamp64\www\fretrat_website\fretrato-website\system\CodeIgniter.php(312): CodeIgniter\CodeIgniter->handleRequest(NULL, Object(Config\Cache), false)
#6 C:\wamp64\www\fretrat_website\fretrato-website\public\index.php(45): CodeIgniter\CodeIgniter->run()
#7 {main}
CRITICAL - 2020-11-30 21:01:09 --> Argument 1 passed to CodeIgniter\Database\BaseResult::getResult() must be of the type string, null given, called in C:\wamp64\www\fretrat_website\fretrato-website\system\Model.php on line 464
#0 C:\wamp64\www\fretrat_website\fretrato-website\system\Model.php(464): CodeIgniter\Database\BaseResult->getResult(NULL)
#1 C:\wamp64\www\fretrat_website\fretrato-website\system\Model.php(1184): CodeIgniter\Model->findAll(9, 0)
#2 C:\wamp64\www\fretrat_website\fretrato-website\app\Controllers\Pages.php(83): CodeIgniter\Model->paginate()
#3 C:\wamp64\www\fretrat_website\fretrato-website\system\CodeIgniter.php(918): App\Controllers\Pages->property_list()
#4 C:\wamp64\www\fretrat_website\fretrato-website\system\CodeIgniter.php(404): CodeIgniter\CodeIgniter->runController(Object(App\Controllers\Pages))
#5 C:\wamp64\www\fretrat_website\fretrato-website\system\CodeIgniter.php(312): CodeIgniter\CodeIgniter->handleRequest(NULL, Object(Config\Cache), false)
#6 C:\wamp64\www\fretrat_website\fretrato-website\public\index.php(45): CodeIgniter\CodeIgniter->run()
#7 {main}
CRITICAL - 2020-11-30 21:03:10 --> Call to a member function links() on null
#0 C:\wamp64\www\fretrat_website\fretrato-website\system\View\View.php(246): include()
#1 C:\wamp64\www\fretrat_website\fretrato-website\system\Common.php(1119): CodeIgniter\View\View->render('property_list', Array, true)
#2 C:\wamp64\www\fretrat_website\fretrato-website\app\Controllers\BaseController.php(82): view('property_list', Array)
#3 C:\wamp64\www\fretrat_website\fretrato-website\app\Controllers\Pages.php(87): App\Controllers\BaseController->basic_page('property_list', Array)
#4 C:\wamp64\www\fretrat_website\fretrato-website\system\CodeIgniter.php(918): App\Controllers\Pages->property_list()
#5 C:\wamp64\www\fretrat_website\fretrato-website\system\CodeIgniter.php(404): CodeIgniter\CodeIgniter->runController(Object(App\Controllers\Pages))
#6 C:\wamp64\www\fretrat_website\fretrato-website\system\CodeIgniter.php(312): CodeIgniter\CodeIgniter->handleRequest(NULL, Object(Config\Cache), false)
#7 C:\wamp64\www\fretrat_website\fretrato-website\public\index.php(45): CodeIgniter\CodeIgniter->run()
#8 {main}
CRITICAL - 2020-11-30 21:03:20 --> syntax error, unexpected end of file
#0 C:\wamp64\www\fretrat_website\fretrato-website\system\Common.php(1119): CodeIgniter\View\View->render('property_list', Array, true)
#1 C:\wamp64\www\fretrat_website\fretrato-website\app\Controllers\BaseController.php(82): view('property_list', Array)
#2 C:\wamp64\www\fretrat_website\fretrato-website\app\Controllers\Pages.php(87): App\Controllers\BaseController->basic_page('property_list', Array)
#3 C:\wamp64\www\fretrat_website\fretrato-website\system\CodeIgniter.php(918): App\Controllers\Pages->property_list()
#4 C:\wamp64\www\fretrat_website\fretrato-website\system\CodeIgniter.php(404): CodeIgniter\CodeIgniter->runController(Object(App\Controllers\Pages))
#5 C:\wamp64\www\fretrat_website\fretrato-website\system\CodeIgniter.php(312): CodeIgniter\CodeIgniter->handleRequest(NULL, Object(Config\Cache), false)
#6 C:\wamp64\www\fretrat_website\fretrato-website\public\index.php(45): CodeIgniter\CodeIgniter->run()
#7 {main}
CRITICAL - 2020-11-30 21:04:53 --> Call to a member function setSurroundCount() on null
#0 C:\wamp64\www\fretrat_website\fretrato-website\system\View\View.php(246): include()
#1 C:\wamp64\www\fretrat_website\fretrato-website\system\Common.php(1119): CodeIgniter\View\View->render('property_list', Array, true)
#2 C:\wamp64\www\fretrat_website\fretrato-website\app\Controllers\BaseController.php(82): view('property_list', Array)
#3 C:\wamp64\www\fretrat_website\fretrato-website\app\Controllers\Pages.php(87): App\Controllers\BaseController->basic_page('property_list', Array)
#4 C:\wamp64\www\fretrat_website\fretrato-website\system\CodeIgniter.php(918): App\Controllers\Pages->property_list()
#5 C:\wamp64\www\fretrat_website\fretrato-website\system\CodeIgniter.php(404): CodeIgniter\CodeIgniter->runController(Object(App\Controllers\Pages))
#6 C:\wamp64\www\fretrat_website\fretrato-website\system\CodeIgniter.php(312): CodeIgniter\CodeIgniter->handleRequest(NULL, Object(Config\Cache), false)
#7 C:\wamp64\www\fretrat_website\fretrato-website\public\index.php(45): CodeIgniter\CodeIgniter->run()
#8 {main}
CRITICAL - 2020-11-30 21:06:40 --> Call to a member function setSurroundCount() on null
#0 C:\wamp64\www\fretrat_website\fretrato-website\system\View\View.php(246): include()
#1 C:\wamp64\www\fretrat_website\fretrato-website\system\Common.php(1119): CodeIgniter\View\View->render('property_list', Array, true)
#2 C:\wamp64\www\fretrat_website\fretrato-website\app\Controllers\BaseController.php(82): view('property_list', Array)
#3 C:\wamp64\www\fretrat_website\fretrato-website\app\Controllers\Pages.php(87): App\Controllers\BaseController->basic_page('property_list', Array)
#4 C:\wamp64\www\fretrat_website\fretrato-website\system\CodeIgniter.php(918): App\Controllers\Pages->property_list()
#5 C:\wamp64\www\fretrat_website\fretrato-website\system\CodeIgniter.php(404): CodeIgniter\CodeIgniter->runController(Object(App\Controllers\Pages))
#6 C:\wamp64\www\fretrat_website\fretrato-website\system\CodeIgniter.php(312): CodeIgniter\CodeIgniter->handleRequest(NULL, Object(Config\Cache), false)
#7 C:\wamp64\www\fretrat_website\fretrato-website\public\index.php(45): CodeIgniter\CodeIgniter->run()
#8 {main}
CRITICAL - 2020-11-30 21:07:02 --> Call to undefined method CodeIgniter\Pager\Pager::setSurroundCount()
#0 C:\wamp64\www\fretrat_website\fretrato-website\system\View\View.php(246): include()
#1 C:\wamp64\www\fretrat_website\fretrato-website\system\Common.php(1119): CodeIgniter\View\View->render('property_list', Array, true)
#2 C:\wamp64\www\fretrat_website\fretrato-website\app\Controllers\BaseController.php(82): view('property_list', Array)
#3 C:\wamp64\www\fretrat_website\fretrato-website\app\Controllers\Pages.php(86): App\Controllers\BaseController->basic_page('property_list', Array)
#4 C:\wamp64\www\fretrat_website\fretrato-website\system\CodeIgniter.php(918): App\Controllers\Pages->property_list()
#5 C:\wamp64\www\fretrat_website\fretrato-website\system\CodeIgniter.php(404): CodeIgniter\CodeIgniter->runController(Object(App\Controllers\Pages))
#6 C:\wamp64\www\fretrat_website\fretrato-website\system\CodeIgniter.php(312): CodeIgniter\CodeIgniter->handleRequest(NULL, Object(Config\Cache), false)
#7 C:\wamp64\www\fretrat_website\fretrato-website\public\index.php(45): CodeIgniter\CodeIgniter->run()
#8 {main}
CRITICAL - 2020-11-30 21:07:14 --> Call to a member function setSurroundCount() on null
#0 C:\wamp64\www\fretrat_website\fretrato-website\system\View\View.php(246): include()
#1 C:\wamp64\www\fretrat_website\fretrato-website\system\Common.php(1119): CodeIgniter\View\View->render('property_list', Array, true)
#2 C:\wamp64\www\fretrat_website\fretrato-website\app\Controllers\BaseController.php(82): view('property_list', Array)
#3 C:\wamp64\www\fretrat_website\fretrato-website\app\Controllers\Pages.php(87): App\Controllers\BaseController->basic_page('property_list', Array)
#4 C:\wamp64\www\fretrat_website\fretrato-website\system\CodeIgniter.php(918): App\Controllers\Pages->property_list()
#5 C:\wamp64\www\fretrat_website\fretrato-website\system\CodeIgniter.php(404): CodeIgniter\CodeIgniter->runController(Object(App\Controllers\Pages))
#6 C:\wamp64\www\fretrat_website\fretrato-website\system\CodeIgniter.php(312): CodeIgniter\CodeIgniter->handleRequest(NULL, Object(Config\Cache), false)
#7 C:\wamp64\www\fretrat_website\fretrato-website\public\index.php(45): CodeIgniter\CodeIgniter->run()
#8 {main}
CRITICAL - 2020-11-30 21:07:42 --> Call to a member function hasPrevious() on null
#0 C:\wamp64\www\fretrat_website\fretrato-website\system\View\View.php(246): include()
#1 C:\wamp64\www\fretrat_website\fretrato-website\system\Common.php(1119): CodeIgniter\View\View->render('property_list', Array, true)
#2 C:\wamp64\www\fretrat_website\fretrato-website\app\Controllers\BaseController.php(82): view('property_list', Array)
#3 C:\wamp64\www\fretrat_website\fretrato-website\app\Controllers\Pages.php(87): App\Controllers\BaseController->basic_page('property_list', Array)
#4 C:\wamp64\www\fretrat_website\fretrato-website\system\CodeIgniter.php(918): App\Controllers\Pages->property_list()
#5 C:\wamp64\www\fretrat_website\fretrato-website\system\CodeIgniter.php(404): CodeIgniter\CodeIgniter->runController(Object(App\Controllers\Pages))
#6 C:\wamp64\www\fretrat_website\fretrato-website\system\CodeIgniter.php(312): CodeIgniter\CodeIgniter->handleRequest(NULL, Object(Config\Cache), false)
#7 C:\wamp64\www\fretrat_website\fretrato-website\public\index.php(45): CodeIgniter\CodeIgniter->run()
#8 {main}
CRITICAL - 2020-11-30 21:07:49 --> Call to a member function setSurroundCount() on null
#0 C:\wamp64\www\fretrat_website\fretrato-website\system\View\View.php(246): include()
#1 C:\wamp64\www\fretrat_website\fretrato-website\system\Common.php(1119): CodeIgniter\View\View->render('property_list', Array, true)
#2 C:\wamp64\www\fretrat_website\fretrato-website\app\Controllers\BaseController.php(82): view('property_list', Array)
#3 C:\wamp64\www\fretrat_website\fretrato-website\app\Controllers\Pages.php(87): App\Controllers\BaseController->basic_page('property_list', Array)
#4 C:\wamp64\www\fretrat_website\fretrato-website\system\CodeIgniter.php(918): App\Controllers\Pages->property_list()
#5 C:\wamp64\www\fretrat_website\fretrato-website\system\CodeIgniter.php(404): CodeIgniter\CodeIgniter->runController(Object(App\Controllers\Pages))
#6 C:\wamp64\www\fretrat_website\fretrato-website\system\CodeIgniter.php(312): CodeIgniter\CodeIgniter->handleRequest(NULL, Object(Config\Cache), false)
#7 C:\wamp64\www\fretrat_website\fretrato-website\public\index.php(45): CodeIgniter\CodeIgniter->run()
#8 {main}
CRITICAL - 2020-11-30 21:12:41 --> Argument 4 passed to CodeIgniter\Model::paginate() must be of the type integer, string given, called in C:\wamp64\www\fretrat_website\fretrato-website\app\Controllers\Pages.php on line 82
#0 C:\wamp64\www\fretrat_website\fretrato-website\app\Controllers\Pages.php(82): CodeIgniter\Model->paginate(10, '0', 1, 'order_by')
#1 C:\wamp64\www\fretrat_website\fretrato-website\system\CodeIgniter.php(918): App\Controllers\Pages->property_list()
#2 C:\wamp64\www\fretrat_website\fretrato-website\system\CodeIgniter.php(404): CodeIgniter\CodeIgniter->runController(Object(App\Controllers\Pages))
#3 C:\wamp64\www\fretrat_website\fretrato-website\system\CodeIgniter.php(312): CodeIgniter\CodeIgniter->handleRequest(NULL, Object(Config\Cache), false)
#4 C:\wamp64\www\fretrat_website\fretrato-website\public\index.php(45): CodeIgniter\CodeIgniter->run()
#5 {main}
CRITICAL - 2020-11-30 21:12:55 --> Argument 1 passed to CodeIgniter\Database\BaseResult::getResult() must be of the type string, null given, called in C:\wamp64\www\fretrat_website\fretrato-website\system\Model.php on line 464
#0 C:\wamp64\www\fretrat_website\fretrato-website\system\Model.php(464): CodeIgniter\Database\BaseResult->getResult(NULL)
#1 C:\wamp64\www\fretrat_website\fretrato-website\system\Model.php(1184): CodeIgniter\Model->findAll(10, 0)
#2 C:\wamp64\www\fretrat_website\fretrato-website\app\Controllers\Pages.php(82): CodeIgniter\Model->paginate(10)
#3 C:\wamp64\www\fretrat_website\fretrato-website\system\CodeIgniter.php(918): App\Controllers\Pages->property_list()
#4 C:\wamp64\www\fretrat_website\fretrato-website\system\CodeIgniter.php(404): CodeIgniter\CodeIgniter->runController(Object(App\Controllers\Pages))
#5 C:\wamp64\www\fretrat_website\fretrato-website\system\CodeIgniter.php(312): CodeIgniter\CodeIgniter->handleRequest(NULL, Object(Config\Cache), false)
#6 C:\wamp64\www\fretrat_website\fretrato-website\public\index.php(45): CodeIgniter\CodeIgniter->run()
#7 {main}
CRITICAL - 2020-11-30 21:13:31 --> Argument 1 passed to CodeIgniter\Database\BaseResult::getResult() must be of the type string, null given, called in C:\wamp64\www\fretrat_website\fretrato-website\system\Model.php on line 464
#0 C:\wamp64\www\fretrat_website\fretrato-website\system\Model.php(464): CodeIgniter\Database\BaseResult->getResult(NULL)
#1 C:\wamp64\www\fretrat_website\fretrato-website\system\Model.php(1184): CodeIgniter\Model->findAll(10, 0)
#2 C:\wamp64\www\fretrat_website\fretrato-website\app\Controllers\Pages.php(82): CodeIgniter\Model->paginate(10)
#3 C:\wamp64\www\fretrat_website\fretrato-website\system\CodeIgniter.php(918): App\Controllers\Pages->property_list()
#4 C:\wamp64\www\fretrat_website\fretrato-website\system\CodeIgniter.php(404): CodeIgniter\CodeIgniter->runController(Object(App\Controllers\Pages))
#5 C:\wamp64\www\fretrat_website\fretrato-website\system\CodeIgniter.php(312): CodeIgniter\CodeIgniter->handleRequest(NULL, Object(Config\Cache), false)
#6 C:\wamp64\www\fretrat_website\fretrato-website\public\index.php(45): CodeIgniter\CodeIgniter->run()
#7 {main}
CRITICAL - 2020-11-30 21:13:34 --> Argument 1 passed to CodeIgniter\Database\BaseResult::getResult() must be of the type string, null given, called in C:\wamp64\www\fretrat_website\fretrato-website\system\Model.php on line 464
#0 C:\wamp64\www\fretrat_website\fretrato-website\system\Model.php(464): CodeIgniter\Database\BaseResult->getResult(NULL)
#1 C:\wamp64\www\fretrat_website\fretrato-website\system\Model.php(1184): CodeIgniter\Model->findAll(10, 0)
#2 C:\wamp64\www\fretrat_website\fretrato-website\app\Controllers\Pages.php(82): CodeIgniter\Model->paginate(10)
#3 C:\wamp64\www\fretrat_website\fretrato-website\system\CodeIgniter.php(918): App\Controllers\Pages->property_list()
#4 C:\wamp64\www\fretrat_website\fretrato-website\system\CodeIgniter.php(404): CodeIgniter\CodeIgniter->runController(Object(App\Controllers\Pages))
#5 C:\wamp64\www\fretrat_website\fretrato-website\system\CodeIgniter.php(312): CodeIgniter\CodeIgniter->handleRequest(NULL, Object(Config\Cache), false)
#6 C:\wamp64\www\fretrat_website\fretrato-website\public\index.php(45): CodeIgniter\CodeIgniter->run()
#7 {main}
CRITICAL - 2020-11-30 21:14:31 --> Argument 1 passed to CodeIgniter\Database\BaseResult::getResult() must be of the type string, null given, called in C:\wamp64\www\fretrat_website\fretrato-website\system\Model.php on line 464
#0 C:\wamp64\www\fretrat_website\fretrato-website\system\Model.php(464): CodeIgniter\Database\BaseResult->getResult(NULL)
#1 C:\wamp64\www\fretrat_website\fretrato-website\system\Model.php(1184): CodeIgniter\Model->findAll(10, 0)
#2 C:\wamp64\www\fretrat_website\fretrato-website\app\Controllers\Pages.php(82): CodeIgniter\Model->paginate(10)
#3 C:\wamp64\www\fretrat_website\fretrato-website\system\CodeIgniter.php(918): App\Controllers\Pages->property_list()
#4 C:\wamp64\www\fretrat_website\fretrato-website\system\CodeIgniter.php(404): CodeIgniter\CodeIgniter->runController(Object(App\Controllers\Pages))
#5 C:\wamp64\www\fretrat_website\fretrato-website\system\CodeIgniter.php(312): CodeIgniter\CodeIgniter->handleRequest(NULL, Object(Config\Cache), false)
#6 C:\wamp64\www\fretrat_website\fretrato-website\public\index.php(45): CodeIgniter\CodeIgniter->run()
#7 {main}
CRITICAL - 2020-11-30 21:14:40 --> Undefined index: img_directory
#0 C:\wamp64\www\fretrat_website\fretrato-website\app\Views\property_list.php(52): CodeIgniter\Debug\Exceptions->errorHandler(8, 'Undefined index...', 'C:\\wamp64\\www\\f...', 52, Array)
#1 C:\wamp64\www\fretrat_website\fretrato-website\system\View\View.php(246): include('C:\\wamp64\\www\\f...')
#2 C:\wamp64\www\fretrat_website\fretrato-website\system\Common.php(1119): CodeIgniter\View\View->render('property_list', Array, true)
#3 C:\wamp64\www\fretrat_website\fretrato-website\app\Controllers\BaseController.php(82): view('property_list', Array)
#4 C:\wamp64\www\fretrat_website\fretrato-website\app\Controllers\Pages.php(86): App\Controllers\BaseController->basic_page('property_list', Array)
#5 C:\wamp64\www\fretrat_website\fretrato-website\system\CodeIgniter.php(918): App\Controllers\Pages->property_list()
#6 C:\wamp64\www\fretrat_website\fretrato-website\system\CodeIgniter.php(404): CodeIgniter\CodeIgniter->runController(Object(App\Controllers\Pages))
#7 C:\wamp64\www\fretrat_website\fretrato-website\system\CodeIgniter.php(312): CodeIgniter\CodeIgniter->handleRequest(NULL, Object(Config\Cache), false)
#8 C:\wamp64\www\fretrat_website\fretrato-website\public\index.php(45): CodeIgniter\CodeIgniter->run()
#9 {main}
CRITICAL - 2020-11-30 21:14:45 --> Argument 1 passed to CodeIgniter\Database\BaseResult::getResult() must be of the type string, null given, called in C:\wamp64\www\fretrat_website\fretrato-website\system\Model.php on line 464
#0 C:\wamp64\www\fretrat_website\fretrato-website\system\Model.php(464): CodeIgniter\Database\BaseResult->getResult(NULL)
#1 C:\wamp64\www\fretrat_website\fretrato-website\system\Model.php(1184): CodeIgniter\Model->findAll(10, 0)
#2 C:\wamp64\www\fretrat_website\fretrato-website\app\Controllers\Pages.php(82): CodeIgniter\Model->paginate(10)
#3 C:\wamp64\www\fretrat_website\fretrato-website\system\CodeIgniter.php(918): App\Controllers\Pages->property_list()
#4 C:\wamp64\www\fretrat_website\fretrato-website\system\CodeIgniter.php(404): CodeIgniter\CodeIgniter->runController(Object(App\Controllers\Pages))
#5 C:\wamp64\www\fretrat_website\fretrato-website\system\CodeIgniter.php(312): CodeIgniter\CodeIgniter->handleRequest(NULL, Object(Config\Cache), false)
#6 C:\wamp64\www\fretrat_website\fretrato-website\public\index.php(45): CodeIgniter\CodeIgniter->run()
#7 {main}
CRITICAL - 2020-11-30 21:17:33 --> Argument 1 passed to CodeIgniter\Database\BaseResult::getResult() must be of the type string, null given, called in C:\wamp64\www\fretrat_website\fretrato-website\system\Model.php on line 464
#0 C:\wamp64\www\fretrat_website\fretrato-website\system\Model.php(464): CodeIgniter\Database\BaseResult->getResult(NULL)
#1 C:\wamp64\www\fretrat_website\fretrato-website\system\Model.php(1184): CodeIgniter\Model->findAll(10, 0)
#2 C:\wamp64\www\fretrat_website\fretrato-website\app\Controllers\Pages.php(82): CodeIgniter\Model->paginate(10)
#3 C:\wamp64\www\fretrat_website\fretrato-website\system\CodeIgniter.php(918): App\Controllers\Pages->property_list()
#4 C:\wamp64\www\fretrat_website\fretrato-website\system\CodeIgniter.php(404): CodeIgniter\CodeIgniter->runController(Object(App\Controllers\Pages))
#5 C:\wamp64\www\fretrat_website\fretrato-website\system\CodeIgniter.php(312): CodeIgniter\CodeIgniter->handleRequest(NULL, Object(Config\Cache), false)
#6 C:\wamp64\www\fretrat_website\fretrato-website\public\index.php(45): CodeIgniter\CodeIgniter->run()
#7 {main}
CRITICAL - 2020-11-30 21:17:54 --> Argument 1 passed to CodeIgniter\Database\BaseResult::getResult() must be of the type string, null given, called in C:\wamp64\www\fretrat_website\fretrato-website\system\Model.php on line 464
#0 C:\wamp64\www\fretrat_website\fretrato-website\system\Model.php(464): CodeIgniter\Database\BaseResult->getResult(NULL)
#1 C:\wamp64\www\fretrat_website\fretrato-website\system\Model.php(1184): CodeIgniter\Model->findAll(10, 0)
#2 C:\wamp64\www\fretrat_website\fretrato-website\app\Controllers\Pages.php(82): CodeIgniter\Model->paginate(10)
#3 C:\wamp64\www\fretrat_website\fretrato-website\system\CodeIgniter.php(918): App\Controllers\Pages->property_list()
#4 C:\wamp64\www\fretrat_website\fretrato-website\system\CodeIgniter.php(404): CodeIgniter\CodeIgniter->runController(Object(App\Controllers\Pages))
#5 C:\wamp64\www\fretrat_website\fretrato-website\system\CodeIgniter.php(312): CodeIgniter\CodeIgniter->handleRequest(NULL, Object(Config\Cache), false)
#6 C:\wamp64\www\fretrat_website\fretrato-website\public\index.php(45): CodeIgniter\CodeIgniter->run()
#7 {main}
CRITICAL - 2020-11-30 21:36:18 --> Argument 1 passed to CodeIgniter\Database\BaseResult::getResult() must be of the type string, null given, called in C:\wamp64\www\fretrat_website\fretrato-website\system\Model.php on line 464
#0 C:\wamp64\www\fretrat_website\fretrato-website\system\Model.php(464): CodeIgniter\Database\BaseResult->getResult(NULL)
#1 C:\wamp64\www\fretrat_website\fretrato-website\system\Model.php(1185): CodeIgniter\Model->findAll(10, 1)
#2 C:\wamp64\www\fretrat_website\fretrato-website\app\Controllers\Pages.php(82): CodeIgniter\Model->paginate(10)
#3 C:\wamp64\www\fretrat_website\fretrato-website\system\CodeIgniter.php(918): App\Controllers\Pages->property_list()
#4 C:\wamp64\www\fretrat_website\fretrato-website\system\CodeIgniter.php(404): CodeIgniter\CodeIgniter->runController(Object(App\Controllers\Pages))
#5 C:\wamp64\www\fretrat_website\fretrato-website\system\CodeIgniter.php(312): CodeIgniter\CodeIgniter->handleRequest(NULL, Object(Config\Cache), false)
#6 C:\wamp64\www\fretrat_website\fretrato-website\public\index.php(45): CodeIgniter\CodeIgniter->run()
#7 {main}
CRITICAL - 2020-11-30 21:37:25 --> Argument 1 passed to CodeIgniter\Database\BaseResult::getResult() must be of the type string, null given, called in C:\wamp64\www\fretrat_website\fretrato-website\system\Model.php on line 464
#0 C:\wamp64\www\fretrat_website\fretrato-website\system\Model.php(464): CodeIgniter\Database\BaseResult->getResult(NULL)
#1 C:\wamp64\www\fretrat_website\fretrato-website\system\Model.php(1184): CodeIgniter\Model->findAll(10, 0)
#2 C:\wamp64\www\fretrat_website\fretrato-website\app\Controllers\Pages.php(82): CodeIgniter\Model->paginate(10)
#3 C:\wamp64\www\fretrat_website\fretrato-website\system\CodeIgniter.php(918): App\Controllers\Pages->property_list()
#4 C:\wamp64\www\fretrat_website\fretrato-website\system\CodeIgniter.php(404): CodeIgniter\CodeIgniter->runController(Object(App\Controllers\Pages))
#5 C:\wamp64\www\fretrat_website\fretrato-website\system\CodeIgniter.php(312): CodeIgniter\CodeIgniter->handleRequest(NULL, Object(Config\Cache), false)
#6 C:\wamp64\www\fretrat_website\fretrato-website\public\index.php(45): CodeIgniter\CodeIgniter->run()
#7 {main}
CRITICAL - 2020-11-30 21:38:31 --> Argument 1 passed to CodeIgniter\Database\BaseResult::getResult() must be of the type string, null given, called in C:\wamp64\www\fretrat_website\fretrato-website\system\Model.php on line 464
#0 C:\wamp64\www\fretrat_website\fretrato-website\system\Model.php(464): CodeIgniter\Database\BaseResult->getResult(NULL)
#1 C:\wamp64\www\fretrat_website\fretrato-website\system\Model.php(1184): CodeIgniter\Model->findAll(10, 0)
#2 C:\wamp64\www\fretrat_website\fretrato-website\app\Controllers\Pages.php(82): CodeIgniter\Model->paginate(10)
#3 C:\wamp64\www\fretrat_website\fretrato-website\system\CodeIgniter.php(918): App\Controllers\Pages->property_list()
#4 C:\wamp64\www\fretrat_website\fretrato-website\system\CodeIgniter.php(404): CodeIgniter\CodeIgniter->runController(Object(App\Controllers\Pages))
#5 C:\wamp64\www\fretrat_website\fretrato-website\system\CodeIgniter.php(312): CodeIgniter\CodeIgniter->handleRequest(NULL, Object(Config\Cache), false)
#6 C:\wamp64\www\fretrat_website\fretrato-website\public\index.php(45): CodeIgniter\CodeIgniter->run()
#7 {main}
CRITICAL - 2020-11-30 21:38:53 --> Argument 1 passed to CodeIgniter\Database\BaseResult::getResult() must be of the type string, null given, called in C:\wamp64\www\fretrat_website\fretrato-website\system\Model.php on line 464
#0 C:\wamp64\www\fretrat_website\fretrato-website\system\Model.php(464): CodeIgniter\Database\BaseResult->getResult(NULL)
#1 C:\wamp64\www\fretrat_website\fretrato-website\system\Model.php(1184): CodeIgniter\Model->findAll(10, 0)
#2 C:\wamp64\www\fretrat_website\fretrato-website\app\Controllers\Pages.php(82): CodeIgniter\Model->paginate(10)
#3 C:\wamp64\www\fretrat_website\fretrato-website\system\CodeIgniter.php(918): App\Controllers\Pages->property_list()
#4 C:\wamp64\www\fretrat_website\fretrato-website\system\CodeIgniter.php(404): CodeIgniter\CodeIgniter->runController(Object(App\Controllers\Pages))
#5 C:\wamp64\www\fretrat_website\fretrato-website\system\CodeIgniter.php(312): CodeIgniter\CodeIgniter->handleRequest(NULL, Object(Config\Cache), false)
#6 C:\wamp64\www\fretrat_website\fretrato-website\public\index.php(45): CodeIgniter\CodeIgniter->run()
#7 {main}
CRITICAL - 2020-11-30 21:39:52 --> Argument 1 passed to CodeIgniter\Database\BaseResult::getResult() must be of the type string, null given, called in C:\wamp64\www\fretrat_website\fretrato-website\system\Model.php on line 464
#0 C:\wamp64\www\fretrat_website\fretrato-website\system\Model.php(464): CodeIgniter\Database\BaseResult->getResult(NULL)
#1 C:\wamp64\www\fretrat_website\fretrato-website\system\Model.php(1184): CodeIgniter\Model->findAll(10, 0)
#2 C:\wamp64\www\fretrat_website\fretrato-website\app\Controllers\Pages.php(82): CodeIgniter\Model->paginate(10)
#3 C:\wamp64\www\fretrat_website\fretrato-website\system\CodeIgniter.php(918): App\Controllers\Pages->property_list()
#4 C:\wamp64\www\fretrat_website\fretrato-website\system\CodeIgniter.php(404): CodeIgniter\CodeIgniter->runController(Object(App\Controllers\Pages))
#5 C:\wamp64\www\fretrat_website\fretrato-website\system\CodeIgniter.php(312): CodeIgniter\CodeIgniter->handleRequest(NULL, Object(Config\Cache), false)
#6 C:\wamp64\www\fretrat_website\fretrato-website\public\index.php(45): CodeIgniter\CodeIgniter->run()
#7 {main}
CRITICAL - 2020-11-30 21:41:38 --> Undefined index: img_directory
#0 C:\wamp64\www\fretrat_website\fretrato-website\app\Views\property_list.php(52): CodeIgniter\Debug\Exceptions->errorHandler(8, 'Undefined index...', 'C:\\wamp64\\www\\f...', 52, Array)
#1 C:\wamp64\www\fretrat_website\fretrato-website\system\View\View.php(246): include('C:\\wamp64\\www\\f...')
#2 C:\wamp64\www\fretrat_website\fretrato-website\system\Common.php(1119): CodeIgniter\View\View->render('property_list', Array, true)
#3 C:\wamp64\www\fretrat_website\fretrato-website\app\Controllers\BaseController.php(82): view('property_list', Array)
#4 C:\wamp64\www\fretrat_website\fretrato-website\app\Controllers\Pages.php(86): App\Controllers\BaseController->basic_page('property_list', Array)
#5 C:\wamp64\www\fretrat_website\fretrato-website\system\CodeIgniter.php(918): App\Controllers\Pages->property_list()
#6 C:\wamp64\www\fretrat_website\fretrato-website\system\CodeIgniter.php(404): CodeIgniter\CodeIgniter->runController(Object(App\Controllers\Pages))
#7 C:\wamp64\www\fretrat_website\fretrato-website\system\CodeIgniter.php(312): CodeIgniter\CodeIgniter->handleRequest(NULL, Object(Config\Cache), false)
#8 C:\wamp64\www\fretrat_website\fretrato-website\public\index.php(45): CodeIgniter\CodeIgniter->run()
#9 {main}
CRITICAL - 2020-11-30 21:41:49 --> Undefined index: img_directory
#0 C:\wamp64\www\fretrat_website\fretrato-website\app\Views\property_list.php(52): CodeIgniter\Debug\Exceptions->errorHandler(8, 'Undefined index...', 'C:\\wamp64\\www\\f...', 52, Array)
#1 C:\wamp64\www\fretrat_website\fretrato-website\system\View\View.php(246): include('C:\\wamp64\\www\\f...')
#2 C:\wamp64\www\fretrat_website\fretrato-website\system\Common.php(1119): CodeIgniter\View\View->render('property_list', Array, true)
#3 C:\wamp64\www\fretrat_website\fretrato-website\app\Controllers\BaseController.php(82): view('property_list', Array)
#4 C:\wamp64\www\fretrat_website\fretrato-website\app\Controllers\Pages.php(86): App\Controllers\BaseController->basic_page('property_list', Array)
#5 C:\wamp64\www\fretrat_website\fretrato-website\system\CodeIgniter.php(918): App\Controllers\Pages->property_list()
#6 C:\wamp64\www\fretrat_website\fretrato-website\system\CodeIgniter.php(404): CodeIgniter\CodeIgniter->runController(Object(App\Controllers\Pages))
#7 C:\wamp64\www\fretrat_website\fretrato-website\system\CodeIgniter.php(312): CodeIgniter\CodeIgniter->handleRequest(NULL, Object(Config\Cache), false)
#8 C:\wamp64\www\fretrat_website\fretrato-website\public\index.php(45): CodeIgniter\CodeIgniter->run()
#9 {main}
CRITICAL - 2020-11-30 21:43:49 --> Call to undefined method CodeIgniter\Pager\Pager::setSurroundCount()
#0 C:\wamp64\www\fretrat_website\fretrato-website\system\View\View.php(246): include()
#1 C:\wamp64\www\fretrat_website\fretrato-website\system\Common.php(1119): CodeIgniter\View\View->render('property_list', Array, true)
#2 C:\wamp64\www\fretrat_website\fretrato-website\app\Controllers\BaseController.php(82): view('property_list', Array)
#3 C:\wamp64\www\fretrat_website\fretrato-website\app\Controllers\Pages.php(88): App\Controllers\BaseController->basic_page('property_list', Array)
#4 C:\wamp64\www\fretrat_website\fretrato-website\system\CodeIgniter.php(918): App\Controllers\Pages->property_list()
#5 C:\wamp64\www\fretrat_website\fretrato-website\system\CodeIgniter.php(404): CodeIgniter\CodeIgniter->runController(Object(App\Controllers\Pages))
#6 C:\wamp64\www\fretrat_website\fretrato-website\system\CodeIgniter.php(312): CodeIgniter\CodeIgniter->handleRequest(NULL, Object(Config\Cache), false)
#7 C:\wamp64\www\fretrat_website\fretrato-website\public\index.php(45): CodeIgniter\CodeIgniter->run()
#8 {main}
CRITICAL - 2020-11-30 21:44:03 --> Undefined variable: pager
#0 C:\wamp64\www\fretrat_website\fretrato-website\app\Views\property_list.php(136): CodeIgniter\Debug\Exceptions->errorHandler(8, 'Undefined varia...', 'C:\\wamp64\\www\\f...', 136, Array)
#1 C:\wamp64\www\fretrat_website\fretrato-website\system\View\View.php(246): include('C:\\wamp64\\www\\f...')
#2 C:\wamp64\www\fretrat_website\fretrato-website\system\Common.php(1119): CodeIgniter\View\View->render('property_list', Array, true)
#3 C:\wamp64\www\fretrat_website\fretrato-website\app\Controllers\BaseController.php(82): view('property_list', Array)
#4 C:\wamp64\www\fretrat_website\fretrato-website\app\Controllers\Pages.php(85): App\Controllers\BaseController->basic_page('property_list', Array)
#5 C:\wamp64\www\fretrat_website\fretrato-website\system\CodeIgniter.php(918): App\Controllers\Pages->property_list()
#6 C:\wamp64\www\fretrat_website\fretrato-website\system\CodeIgniter.php(404): CodeIgniter\CodeIgniter->runController(Object(App\Controllers\Pages))
#7 C:\wamp64\www\fretrat_website\fretrato-website\system\CodeIgniter.php(312): CodeIgniter\CodeIgniter->handleRequest(NULL, Object(Config\Cache), false)
#8 C:\wamp64\www\fretrat_website\fretrato-website\public\index.php(45): CodeIgniter\CodeIgniter->run()
#9 {main}
CRITICAL - 2020-11-30 21:46:52 --> Undefined variable: totalrec
#0 C:\wamp64\www\fretrat_website\fretrato-website\app\Controllers\Pages.php(84): CodeIgniter\Debug\Exceptions->errorHandler(8, 'Undefined varia...', 'C:\\wamp64\\www\\f...', 84, Array)
#1 C:\wamp64\www\fretrat_website\fretrato-website\system\CodeIgniter.php(918): App\Controllers\Pages->property_list()
#2 C:\wamp64\www\fretrat_website\fretrato-website\system\CodeIgniter.php(404): CodeIgniter\CodeIgniter->runController(Object(App\Controllers\Pages))
#3 C:\wamp64\www\fretrat_website\fretrato-website\system\CodeIgniter.php(312): CodeIgniter\CodeIgniter->handleRequest(NULL, Object(Config\Cache), false)
#4 C:\wamp64\www\fretrat_website\fretrato-website\public\index.php(45): CodeIgniter\CodeIgniter->run()
#5 {main}
CRITICAL - 2020-11-30 21:52:16 --> Undefined variable: row_per_page
#0 C:\wamp64\www\fretrat_website\fretrato-website\app\Controllers\Pages.php(87): CodeIgniter\Debug\Exceptions->errorHandler(8, 'Undefined varia...', 'C:\\wamp64\\www\\f...', 87, Array)
#1 C:\wamp64\www\fretrat_website\fretrato-website\system\CodeIgniter.php(918): App\Controllers\Pages->property_list()
#2 C:\wamp64\www\fretrat_website\fretrato-website\system\CodeIgniter.php(404): CodeIgniter\CodeIgniter->runController(Object(App\Controllers\Pages))
#3 C:\wamp64\www\fretrat_website\fretrato-website\system\CodeIgniter.php(312): CodeIgniter\CodeIgniter->handleRequest(NULL, Object(Config\Cache), false)
#4 C:\wamp64\www\fretrat_website\fretrato-website\public\index.php(45): CodeIgniter\CodeIgniter->run()
#5 {main}
CRITICAL - 2020-11-30 21:52:42 --> Undefined property: App\Controllers\Pages::$pagination
#0 C:\wamp64\www\fretrat_website\fretrato-website\app\Controllers\Pages.php(110): CodeIgniter\Debug\Exceptions->errorHandler(8, 'Undefined prope...', 'C:\\wamp64\\www\\f...', 110, Array)
#1 C:\wamp64\www\fretrat_website\fretrato-website\system\CodeIgniter.php(918): App\Controllers\Pages->property_list()
#2 C:\wamp64\www\fretrat_website\fretrato-website\system\CodeIgniter.php(404): CodeIgniter\CodeIgniter->runController(Object(App\Controllers\Pages))
#3 C:\wamp64\www\fretrat_website\fretrato-website\system\CodeIgniter.php(312): CodeIgniter\CodeIgniter->handleRequest(NULL, Object(Config\Cache), false)
#4 C:\wamp64\www\fretrat_website\fretrato-website\public\index.php(45): CodeIgniter\CodeIgniter->run()
#5 {main}
CRITICAL - 2020-11-30 21:56:44 --> Call to a member function setSurroundCount() on null
#0 C:\wamp64\www\fretrat_website\fretrato-website\system\View\View.php(246): include()
#1 C:\wamp64\www\fretrat_website\fretrato-website\system\Common.php(1119): CodeIgniter\View\View->render('property_list', Array, true)
#2 C:\wamp64\www\fretrat_website\fretrato-website\app\Controllers\BaseController.php(82): view('property_list', Array)
#3 C:\wamp64\www\fretrat_website\fretrato-website\app\Controllers\Pages.php(87): App\Controllers\BaseController->basic_page('property_list', Array)
#4 C:\wamp64\www\fretrat_website\fretrato-website\system\CodeIgniter.php(918): App\Controllers\Pages->property_list()
#5 C:\wamp64\www\fretrat_website\fretrato-website\system\CodeIgniter.php(404): CodeIgniter\CodeIgniter->runController(Object(App\Controllers\Pages))
#6 C:\wamp64\www\fretrat_website\fretrato-website\system\CodeIgniter.php(312): CodeIgniter\CodeIgniter->handleRequest(NULL, Object(Config\Cache), false)
#7 C:\wamp64\www\fretrat_website\fretrato-website\public\index.php(45): CodeIgniter\CodeIgniter->run()
#8 {main}
CRITICAL - 2020-11-30 21:59:13 --> Call to a member function paginate() on array
#0 C:\wamp64\www\fretrat_website\fretrato-website\system\CodeIgniter.php(918): App\Controllers\Pages->property_list()
#1 C:\wamp64\www\fretrat_website\fretrato-website\system\CodeIgniter.php(404): CodeIgniter\CodeIgniter->runController(Object(App\Controllers\Pages))
#2 C:\wamp64\www\fretrat_website\fretrato-website\system\CodeIgniter.php(312): CodeIgniter\CodeIgniter->handleRequest(NULL, Object(Config\Cache), false)
#3 C:\wamp64\www\fretrat_website\fretrato-website\public\index.php(45): CodeIgniter\CodeIgniter->run()
#4 {main}
CRITICAL - 2020-11-30 21:59:29 --> Call to a member function paginate() on array
#0 C:\wamp64\www\fretrat_website\fretrato-website\system\CodeIgniter.php(918): App\Controllers\Pages->property_list()
#1 C:\wamp64\www\fretrat_website\fretrato-website\system\CodeIgniter.php(404): CodeIgniter\CodeIgniter->runController(Object(App\Controllers\Pages))
#2 C:\wamp64\www\fretrat_website\fretrato-website\system\CodeIgniter.php(312): CodeIgniter\CodeIgniter->handleRequest(NULL, Object(Config\Cache), false)
#3 C:\wamp64\www\fretrat_website\fretrato-website\public\index.php(45): CodeIgniter\CodeIgniter->run()
#4 {main}
CRITICAL - 2020-11-30 21:59:55 --> Call to a member function paginate() on array
#0 C:\wamp64\www\fretrat_website\fretrato-website\system\CodeIgniter.php(918): App\Controllers\Pages->property_list()
#1 C:\wamp64\www\fretrat_website\fretrato-website\system\CodeIgniter.php(404): CodeIgniter\CodeIgniter->runController(Object(App\Controllers\Pages))
#2 C:\wamp64\www\fretrat_website\fretrato-website\system\CodeIgniter.php(312): CodeIgniter\CodeIgniter->handleRequest(NULL, Object(Config\Cache), false)
#3 C:\wamp64\www\fretrat_website\fretrato-website\public\index.php(45): CodeIgniter\CodeIgniter->run()
#4 {main}
CRITICAL - 2020-11-30 22:00:02 --> Call to a member function setSurroundCount() on null
#0 C:\wamp64\www\fretrat_website\fretrato-website\system\View\View.php(246): include()
#1 C:\wamp64\www\fretrat_website\fretrato-website\system\Common.php(1119): CodeIgniter\View\View->render('property_list', Array, true)
#2 C:\wamp64\www\fretrat_website\fretrato-website\app\Controllers\BaseController.php(82): view('property_list', Array)
#3 C:\wamp64\www\fretrat_website\fretrato-website\app\Controllers\Pages.php(87): App\Controllers\BaseController->basic_page('property_list', Array)
#4 C:\wamp64\www\fretrat_website\fretrato-website\system\CodeIgniter.php(918): App\Controllers\Pages->property_list()
#5 C:\wamp64\www\fretrat_website\fretrato-website\system\CodeIgniter.php(404): CodeIgniter\CodeIgniter->runController(Object(App\Controllers\Pages))
#6 C:\wamp64\www\fretrat_website\fretrato-website\system\CodeIgniter.php(312): CodeIgniter\CodeIgniter->handleRequest(NULL, Object(Config\Cache), false)
#7 C:\wamp64\www\fretrat_website\fretrato-website\public\index.php(45): CodeIgniter\CodeIgniter->run()
#8 {main}
CRITICAL - 2020-11-30 22:00:20 --> Call to a member function setSurroundCount() on null
#0 C:\wamp64\www\fretrat_website\fretrato-website\system\View\View.php(246): include()
#1 C:\wamp64\www\fretrat_website\fretrato-website\system\Common.php(1119): CodeIgniter\View\View->render('property_list', Array, true)
#2 C:\wamp64\www\fretrat_website\fretrato-website\app\Controllers\BaseController.php(82): view('property_list', Array)
#3 C:\wamp64\www\fretrat_website\fretrato-website\app\Controllers\Pages.php(87): App\Controllers\BaseController->basic_page('property_list', Array)
#4 C:\wamp64\www\fretrat_website\fretrato-website\system\CodeIgniter.php(918): App\Controllers\Pages->property_list()
#5 C:\wamp64\www\fretrat_website\fretrato-website\system\CodeIgniter.php(404): CodeIgniter\CodeIgniter->runController(Object(App\Controllers\Pages))
#6 C:\wamp64\www\fretrat_website\fretrato-website\system\CodeIgniter.php(312): CodeIgniter\CodeIgniter->handleRequest(NULL, Object(Config\Cache), false)
#7 C:\wamp64\www\fretrat_website\fretrato-website\public\index.php(45): CodeIgniter\CodeIgniter->run()
#8 {main}
CRITICAL - 2020-11-30 22:00:25 --> Call to a member function setSurroundCount() on null
#0 C:\wamp64\www\fretrat_website\fretrato-website\system\View\View.php(246): include()
#1 C:\wamp64\www\fretrat_website\fretrato-website\system\Common.php(1119): CodeIgniter\View\View->render('property_list', Array, true)
#2 C:\wamp64\www\fretrat_website\fretrato-website\app\Controllers\BaseController.php(82): view('property_list', Array)
#3 C:\wamp64\www\fretrat_website\fretrato-website\app\Controllers\Pages.php(87): App\Controllers\BaseController->basic_page('property_list', Array)
#4 C:\wamp64\www\fretrat_website\fretrato-website\system\CodeIgniter.php(918): App\Controllers\Pages->property_list()
#5 C:\wamp64\www\fretrat_website\fretrato-website\system\CodeIgniter.php(404): CodeIgniter\CodeIgniter->runController(Object(App\Controllers\Pages))
#6 C:\wamp64\www\fretrat_website\fretrato-website\system\CodeIgniter.php(312): CodeIgniter\CodeIgniter->handleRequest(NULL, Object(Config\Cache), false)
#7 C:\wamp64\www\fretrat_website\fretrato-website\public\index.php(45): CodeIgniter\CodeIgniter->run()
#8 {main}
CRITICAL - 2020-11-30 22:00:58 --> Call to a member function setSurroundCount() on null
#0 C:\wamp64\www\fretrat_website\fretrato-website\system\View\View.php(246): include()
#1 C:\wamp64\www\fretrat_website\fretrato-website\system\Common.php(1119): CodeIgniter\View\View->render('property_list', Array, true)
#2 C:\wamp64\www\fretrat_website\fretrato-website\app\Controllers\BaseController.php(82): view('property_list', Array)
#3 C:\wamp64\www\fretrat_website\fretrato-website\app\Controllers\Pages.php(87): App\Controllers\BaseController->basic_page('property_list', Array)
#4 C:\wamp64\www\fretrat_website\fretrato-website\system\CodeIgniter.php(918): App\Controllers\Pages->property_list()
#5 C:\wamp64\www\fretrat_website\fretrato-website\system\CodeIgniter.php(404): CodeIgniter\CodeIgniter->runController(Object(App\Controllers\Pages))
#6 C:\wamp64\www\fretrat_website\fretrato-website\system\CodeIgniter.php(312): CodeIgniter\CodeIgniter->handleRequest(NULL, Object(Config\Cache), false)
#7 C:\wamp64\www\fretrat_website\fretrato-website\public\index.php(45): CodeIgniter\CodeIgniter->run()
#8 {main}
CRITICAL - 2020-11-30 22:01:11 --> Call to a member function hasPrevious() on null
#0 C:\wamp64\www\fretrat_website\fretrato-website\system\View\View.php(246): include()
#1 C:\wamp64\www\fretrat_website\fretrato-website\system\Common.php(1119): CodeIgniter\View\View->render('property_list', Array, true)
#2 C:\wamp64\www\fretrat_website\fretrato-website\app\Controllers\BaseController.php(82): view('property_list', Array)
#3 C:\wamp64\www\fretrat_website\fretrato-website\app\Controllers\Pages.php(87): App\Controllers\BaseController->basic_page('property_list', Array)
#4 C:\wamp64\www\fretrat_website\fretrato-website\system\CodeIgniter.php(918): App\Controllers\Pages->property_list()
#5 C:\wamp64\www\fretrat_website\fretrato-website\system\CodeIgniter.php(404): CodeIgniter\CodeIgniter->runController(Object(App\Controllers\Pages))
#6 C:\wamp64\www\fretrat_website\fretrato-website\system\CodeIgniter.php(312): CodeIgniter\CodeIgniter->handleRequest(NULL, Object(Config\Cache), false)
#7 C:\wamp64\www\fretrat_website\fretrato-website\public\index.php(45): CodeIgniter\CodeIgniter->run()
#8 {main}
CRITICAL - 2020-11-30 22:01:15 --> Call to a member function setSurroundCount() on null
#0 C:\wamp64\www\fretrat_website\fretrato-website\system\View\View.php(246): include()
#1 C:\wamp64\www\fretrat_website\fretrato-website\system\Common.php(1119): CodeIgniter\View\View->render('property_list', Array, true)
#2 C:\wamp64\www\fretrat_website\fretrato-website\app\Controllers\BaseController.php(82): view('property_list', Array)
#3 C:\wamp64\www\fretrat_website\fretrato-website\app\Controllers\Pages.php(87): App\Controllers\BaseController->basic_page('property_list', Array)
#4 C:\wamp64\www\fretrat_website\fretrato-website\system\CodeIgniter.php(918): App\Controllers\Pages->property_list()
#5 C:\wamp64\www\fretrat_website\fretrato-website\system\CodeIgniter.php(404): CodeIgniter\CodeIgniter->runController(Object(App\Controllers\Pages))
#6 C:\wamp64\www\fretrat_website\fretrato-website\system\CodeIgniter.php(312): CodeIgniter\CodeIgniter->handleRequest(NULL, Object(Config\Cache), false)
#7 C:\wamp64\www\fretrat_website\fretrato-website\public\index.php(45): CodeIgniter\CodeIgniter->run()
#8 {main}
CRITICAL - 2020-11-30 22:02:15 --> Call to undefined method CodeIgniter\Pager\Pager::setSurroundCount()
#0 C:\wamp64\www\fretrat_website\fretrato-website\system\View\View.php(246): include()
#1 C:\wamp64\www\fretrat_website\fretrato-website\system\Common.php(1119): CodeIgniter\View\View->render('property_list', Array, true)
#2 C:\wamp64\www\fretrat_website\fretrato-website\app\Controllers\BaseController.php(82): view('property_list', Array)
#3 C:\wamp64\www\fretrat_website\fretrato-website\app\Controllers\Pages.php(88): App\Controllers\BaseController->basic_page('property_list', Array)
#4 C:\wamp64\www\fretrat_website\fretrato-website\system\CodeIgniter.php(918): App\Controllers\Pages->property_list()
#5 C:\wamp64\www\fretrat_website\fretrato-website\system\CodeIgniter.php(404): CodeIgniter\CodeIgniter->runController(Object(App\Controllers\Pages))
#6 C:\wamp64\www\fretrat_website\fretrato-website\system\CodeIgniter.php(312): CodeIgniter\CodeIgniter->handleRequest(NULL, Object(Config\Cache), false)
#7 C:\wamp64\www\fretrat_website\fretrato-website\public\index.php(45): CodeIgniter\CodeIgniter->run()
#8 {main}
CRITICAL - 2020-11-30 22:02:22 --> Call to a member function setSurroundCount() on null
#0 C:\wamp64\www\fretrat_website\fretrato-website\system\View\View.php(246): include()
#1 C:\wamp64\www\fretrat_website\fretrato-website\system\Common.php(1119): CodeIgniter\View\View->render('property_list', Array, true)
#2 C:\wamp64\www\fretrat_website\fretrato-website\app\Controllers\BaseController.php(82): view('property_list', Array)
#3 C:\wamp64\www\fretrat_website\fretrato-website\app\Controllers\Pages.php(88): App\Controllers\BaseController->basic_page('property_list', Array)
#4 C:\wamp64\www\fretrat_website\fretrato-website\system\CodeIgniter.php(918): App\Controllers\Pages->property_list()
#5 C:\wamp64\www\fretrat_website\fretrato-website\system\CodeIgniter.php(404): CodeIgniter\CodeIgniter->runController(Object(App\Controllers\Pages))
#6 C:\wamp64\www\fretrat_website\fretrato-website\system\CodeIgniter.php(312): CodeIgniter\CodeIgniter->handleRequest(NULL, Object(Config\Cache), false)
#7 C:\wamp64\www\fretrat_website\fretrato-website\public\index.php(45): CodeIgniter\CodeIgniter->run()
#8 {main}
CRITICAL - 2020-11-30 22:02:25 --> Call to undefined method CodeIgniter\Pager\Pager::setSurroundCount()
#0 C:\wamp64\www\fretrat_website\fretrato-website\system\View\View.php(246): include()
#1 C:\wamp64\www\fretrat_website\fretrato-website\system\Common.php(1119): CodeIgniter\View\View->render('property_list', Array, true)
#2 C:\wamp64\www\fretrat_website\fretrato-website\app\Controllers\BaseController.php(82): view('property_list', Array)
#3 C:\wamp64\www\fretrat_website\fretrato-website\app\Controllers\Pages.php(88): App\Controllers\BaseController->basic_page('property_list', Array)
#4 C:\wamp64\www\fretrat_website\fretrato-website\system\CodeIgniter.php(918): App\Controllers\Pages->property_list()
#5 C:\wamp64\www\fretrat_website\fretrato-website\system\CodeIgniter.php(404): CodeIgniter\CodeIgniter->runController(Object(App\Controllers\Pages))
#6 C:\wamp64\www\fretrat_website\fretrato-website\system\CodeIgniter.php(312): CodeIgniter\CodeIgniter->handleRequest(NULL, Object(Config\Cache), false)
#7 C:\wamp64\www\fretrat_website\fretrato-website\public\index.php(45): CodeIgniter\CodeIgniter->run()
#8 {main}
CRITICAL - 2020-11-30 22:04:47 --> Call to undefined method CodeIgniter\Pager\Pager::setSurroundCount()
#0 C:\wamp64\www\fretrat_website\fretrato-website\system\View\View.php(246): include()
#1 C:\wamp64\www\fretrat_website\fretrato-website\system\Common.php(1119): CodeIgniter\View\View->render('property_list', Array, true)
#2 C:\wamp64\www\fretrat_website\fretrato-website\app\Controllers\BaseController.php(82): view('property_list', Array)
#3 C:\wamp64\www\fretrat_website\fretrato-website\app\Controllers\Pages.php(88): App\Controllers\BaseController->basic_page('property_list', Array)
#4 C:\wamp64\www\fretrat_website\fretrato-website\system\CodeIgniter.php(918): App\Controllers\Pages->property_list()
#5 C:\wamp64\www\fretrat_website\fretrato-website\system\CodeIgniter.php(404): CodeIgniter\CodeIgniter->runController(Object(App\Controllers\Pages))
#6 C:\wamp64\www\fretrat_website\fretrato-website\system\CodeIgniter.php(312): CodeIgniter\CodeIgniter->handleRequest(NULL, Object(Config\Cache), false)
#7 C:\wamp64\www\fretrat_website\fretrato-website\public\index.php(45): CodeIgniter\CodeIgniter->run()
#8 {main}
CRITICAL - 2020-11-30 23:15:48 --> Invalid file: my_listing.php
#0 C:\wamp64\www\fretrat_website\fretrato-website\system\View\View.php(228): CodeIgniter\Exceptions\FrameworkException::forInvalidFile('my_listing.php')
#1 C:\wamp64\www\fretrat_website\fretrato-website\system\Common.php(1119): CodeIgniter\View\View->render('my_listing', Array, true)
#2 C:\wamp64\www\fretrat_website\fretrato-website\app\Controllers\BaseController.php(82): view('my_listing', Array)
#3 C:\wamp64\www\fretrat_website\fretrato-website\app\Controllers\Pages.php(177): App\Controllers\BaseController->basic_page('my_listing', Array)
#4 C:\wamp64\www\fretrat_website\fretrato-website\system\CodeIgniter.php(918): App\Controllers\Pages->my_listing()
#5 C:\wamp64\www\fretrat_website\fretrato-website\system\CodeIgniter.php(404): CodeIgniter\CodeIgniter->runController(Object(App\Controllers\Pages))
#6 C:\wamp64\www\fretrat_website\fretrato-website\system\CodeIgniter.php(312): CodeIgniter\CodeIgniter->handleRequest(NULL, Object(Config\Cache), false)
#7 C:\wamp64\www\fretrat_website\fretrato-website\public\index.php(45): CodeIgniter\CodeIgniter->run()
#8 {main}
CRITICAL - 2020-11-30 23:16:32 --> Undefined variable: blogs_list
#0 C:\wamp64\www\fretrat_website\fretrato-website\app\Views\my_listing.php(11): CodeIgniter\Debug\Exceptions->errorHandler(8, 'Undefined varia...', 'C:\\wamp64\\www\\f...', 11, Array)
#1 C:\wamp64\www\fretrat_website\fretrato-website\system\View\View.php(246): include('C:\\wamp64\\www\\f...')
#2 C:\wamp64\www\fretrat_website\fretrato-website\system\Common.php(1119): CodeIgniter\View\View->render('my_listing', Array, true)
#3 C:\wamp64\www\fretrat_website\fretrato-website\app\Controllers\BaseController.php(82): view('my_listing', Array)
#4 C:\wamp64\www\fretrat_website\fretrato-website\app\Controllers\Pages.php(177): App\Controllers\BaseController->basic_page('my_listing', Array)
#5 C:\wamp64\www\fretrat_website\fretrato-website\system\CodeIgniter.php(918): App\Controllers\Pages->my_listing()
#6 C:\wamp64\www\fretrat_website\fretrato-website\system\CodeIgniter.php(404): CodeIgniter\CodeIgniter->runController(Object(App\Controllers\Pages))
#7 C:\wamp64\www\fretrat_website\fretrato-website\system\CodeIgniter.php(312): CodeIgniter\CodeIgniter->handleRequest(NULL, Object(Config\Cache), false)
#8 C:\wamp64\www\fretrat_website\fretrato-website\public\index.php(45): CodeIgniter\CodeIgniter->run()
#9 {main}
CRITICAL - 2020-11-30 23:18:44 --> syntax error, unexpected ';', expecting ',' or ')'
#0 C:\wamp64\www\fretrat_website\fretrato-website\system\Router\Router.php(195): CodeIgniter\Router\Router->autoRoute('pages/my_listin...')
#1 C:\wamp64\www\fretrat_website\fretrato-website\system\CodeIgniter.php(793): CodeIgniter\Router\Router->handle('pages/my_listin...')
#2 C:\wamp64\www\fretrat_website\fretrato-website\system\CodeIgniter.php(364): CodeIgniter\CodeIgniter->tryToRouteIt(Object(CodeIgniter\Router\RouteCollection))
#3 C:\wamp64\www\fretrat_website\fretrato-website\system\CodeIgniter.php(312): CodeIgniter\CodeIgniter->handleRequest(NULL, Object(Config\Cache), false)
#4 C:\wamp64\www\fretrat_website\fretrato-website\public\index.php(45): CodeIgniter\CodeIgniter->run()
#5 {main}
CRITICAL - 2020-11-30 23:18:53 --> Undefined variable: blogs_list
#0 C:\wamp64\www\fretrat_website\fretrato-website\app\Views\my_listing.php(11): CodeIgniter\Debug\Exceptions->errorHandler(8, 'Undefined varia...', 'C:\\wamp64\\www\\f...', 11, Array)
#1 C:\wamp64\www\fretrat_website\fretrato-website\system\View\View.php(246): include('C:\\wamp64\\www\\f...')
#2 C:\wamp64\www\fretrat_website\fretrato-website\system\Common.php(1119): CodeIgniter\View\View->render('my_listing', Array, true)
#3 C:\wamp64\www\fretrat_website\fretrato-website\app\Controllers\BaseController.php(82): view('my_listing', Array)
#4 C:\wamp64\www\fretrat_website\fretrato-website\app\Controllers\Pages.php(179): App\Controllers\BaseController->basic_page('my_listing', Array)
#5 C:\wamp64\www\fretrat_website\fretrato-website\system\CodeIgniter.php(918): App\Controllers\Pages->my_listing()
#6 C:\wamp64\www\fretrat_website\fretrato-website\system\CodeIgniter.php(404): CodeIgniter\CodeIgniter->runController(Object(App\Controllers\Pages))
#7 C:\wamp64\www\fretrat_website\fretrato-website\system\CodeIgniter.php(312): CodeIgniter\CodeIgniter->handleRequest(NULL, Object(Config\Cache), false)
#8 C:\wamp64\www\fretrat_website\fretrato-website\public\index.php(45): CodeIgniter\CodeIgniter->run()
#9 {main}
CRITICAL - 2020-11-30 23:19:06 --> Undefined index: author_name
#0 C:\wamp64\www\fretrat_website\fretrato-website\app\Views\my_listing.php(22): CodeIgniter\Debug\Exceptions->errorHandler(8, 'Undefined index...', 'C:\\wamp64\\www\\f...', 22, Array)
#1 C:\wamp64\www\fretrat_website\fretrato-website\system\View\View.php(246): include('C:\\wamp64\\www\\f...')
#2 C:\wamp64\www\fretrat_website\fretrato-website\system\Common.php(1119): CodeIgniter\View\View->render('my_listing', Array, true)
#3 C:\wamp64\www\fretrat_website\fretrato-website\app\Controllers\BaseController.php(82): view('my_listing', Array)
#4 C:\wamp64\www\fretrat_website\fretrato-website\app\Controllers\Pages.php(179): App\Controllers\BaseController->basic_page('my_listing', Array)
#5 C:\wamp64\www\fretrat_website\fretrato-website\system\CodeIgniter.php(918): App\Controllers\Pages->my_listing()
#6 C:\wamp64\www\fretrat_website\fretrato-website\system\CodeIgniter.php(404): CodeIgniter\CodeIgniter->runController(Object(App\Controllers\Pages))
#7 C:\wamp64\www\fretrat_website\fretrato-website\system\CodeIgniter.php(312): CodeIgniter\CodeIgniter->handleRequest(NULL, Object(Config\Cache), false)
#8 C:\wamp64\www\fretrat_website\fretrato-website\public\index.php(45): CodeIgniter\CodeIgniter->run()
#9 {main}
CRITICAL - 2020-11-30 23:19:15 --> Undefined index: title
#0 C:\wamp64\www\fretrat_website\fretrato-website\app\Views\my_listing.php(28): CodeIgniter\Debug\Exceptions->errorHandler(8, 'Undefined index...', 'C:\\wamp64\\www\\f...', 28, Array)
#1 C:\wamp64\www\fretrat_website\fretrato-website\system\View\View.php(246): include('C:\\wamp64\\www\\f...')
#2 C:\wamp64\www\fretrat_website\fretrato-website\system\Common.php(1119): CodeIgniter\View\View->render('my_listing', Array, true)
#3 C:\wamp64\www\fretrat_website\fretrato-website\app\Controllers\BaseController.php(82): view('my_listing', Array)
#4 C:\wamp64\www\fretrat_website\fretrato-website\app\Controllers\Pages.php(179): App\Controllers\BaseController->basic_page('my_listing', Array)
#5 C:\wamp64\www\fretrat_website\fretrato-website\system\CodeIgniter.php(918): App\Controllers\Pages->my_listing()
#6 C:\wamp64\www\fretrat_website\fretrato-website\system\CodeIgniter.php(404): CodeIgniter\CodeIgniter->runController(Object(App\Controllers\Pages))
#7 C:\wamp64\www\fretrat_website\fretrato-website\system\CodeIgniter.php(312): CodeIgniter\CodeIgniter->handleRequest(NULL, Object(Config\Cache), false)
#8 C:\wamp64\www\fretrat_website\fretrato-website\public\index.php(45): CodeIgniter\CodeIgniter->run()
#9 {main}
CRITICAL - 2020-11-30 23:19:49 --> Undefined index: title
#0 C:\wamp64\www\fretrat_website\fretrato-website\app\Views\my_listing.php(28): CodeIgniter\Debug\Exceptions->errorHandler(8, 'Undefined index...', 'C:\\wamp64\\www\\f...', 28, Array)
#1 C:\wamp64\www\fretrat_website\fretrato-website\system\View\View.php(246): include('C:\\wamp64\\www\\f...')
#2 C:\wamp64\www\fretrat_website\fretrato-website\system\Common.php(1119): CodeIgniter\View\View->render('my_listing', Array, true)
#3 C:\wamp64\www\fretrat_website\fretrato-website\app\Controllers\BaseController.php(82): view('my_listing', Array)
#4 C:\wamp64\www\fretrat_website\fretrato-website\app\Controllers\Pages.php(179): App\Controllers\BaseController->basic_page('my_listing', Array)
#5 C:\wamp64\www\fretrat_website\fretrato-website\system\CodeIgniter.php(918): App\Controllers\Pages->my_listing()
#6 C:\wamp64\www\fretrat_website\fretrato-website\system\CodeIgniter.php(404): CodeIgniter\CodeIgniter->runController(Object(App\Controllers\Pages))
#7 C:\wamp64\www\fretrat_website\fretrato-website\system\CodeIgniter.php(312): CodeIgniter\CodeIgniter->handleRequest(NULL, Object(Config\Cache), false)
#8 C:\wamp64\www\fretrat_website\fretrato-website\public\index.php(45): CodeIgniter\CodeIgniter->run()
#9 {main}
CRITICAL - 2020-11-30 23:20:10 --> Call to undefined function word_limiter()
#0 C:\wamp64\www\fretrat_website\fretrato-website\system\View\View.php(246): include()
#1 C:\wamp64\www\fretrat_website\fretrato-website\system\Common.php(1119): CodeIgniter\View\View->render('my_listing', Array, true)
#2 C:\wamp64\www\fretrat_website\fretrato-website\app\Controllers\BaseController.php(82): view('my_listing', Array)
#3 C:\wamp64\www\fretrat_website\fretrato-website\app\Controllers\Pages.php(179): App\Controllers\BaseController->basic_page('my_listing', Array)
#4 C:\wamp64\www\fretrat_website\fretrato-website\system\CodeIgniter.php(918): App\Controllers\Pages->my_listing()
#5 C:\wamp64\www\fretrat_website\fretrato-website\system\CodeIgniter.php(404): CodeIgniter\CodeIgniter->runController(Object(App\Controllers\Pages))
#6 C:\wamp64\www\fretrat_website\fretrato-website\system\CodeIgniter.php(312): CodeIgniter\CodeIgniter->handleRequest(NULL, Object(Config\Cache), false)
#7 C:\wamp64\www\fretrat_website\fretrato-website\public\index.php(45): CodeIgniter\CodeIgniter->run()
#8 {main}
CRITICAL - 2020-11-30 23:21:37 --> Too few arguments to function App\Models\Pagesmod::get_properties(), 3 passed in C:\wamp64\www\fretrat_website\fretrato-website\app\Controllers\BaseController.php on line 79 and exactly 5 expected
#0 C:\wamp64\www\fretrat_website\fretrato-website\app\Controllers\BaseController.php(79): App\Models\Pagesmod->get_properties(3, 0, false)
#1 C:\wamp64\www\fretrat_website\fretrato-website\app\Controllers\Pages.php(181): App\Controllers\BaseController->basic_page('my_listing', Array)
#2 C:\wamp64\www\fretrat_website\fretrato-website\system\CodeIgniter.php(918): App\Controllers\Pages->my_listing()
#3 C:\wamp64\www\fretrat_website\fretrato-website\system\CodeIgniter.php(404): CodeIgniter\CodeIgniter->runController(Object(App\Controllers\Pages))
#4 C:\wamp64\www\fretrat_website\fretrato-website\system\CodeIgniter.php(312): CodeIgniter\CodeIgniter->handleRequest(NULL, Object(Config\Cache), false)
#5 C:\wamp64\www\fretrat_website\fretrato-website\public\index.php(45): CodeIgniter\CodeIgniter->run()
#6 {main}
CRITICAL - 2020-11-30 23:21:49 --> Too few arguments to function App\Models\Pagesmod::get_properties(), 3 passed in C:\wamp64\www\fretrat_website\fretrato-website\app\Controllers\BaseController.php on line 79 and exactly 5 expected
#0 C:\wamp64\www\fretrat_website\fretrato-website\app\Controllers\BaseController.php(79): App\Models\Pagesmod->get_properties(3, 0, false)
#1 C:\wamp64\www\fretrat_website\fretrato-website\app\Controllers\Pages.php(181): App\Controllers\BaseController->basic_page('my_listing', Array)
#2 C:\wamp64\www\fretrat_website\fretrato-website\system\CodeIgniter.php(918): App\Controllers\Pages->my_listing()
#3 C:\wamp64\www\fretrat_website\fretrato-website\system\CodeIgniter.php(404): CodeIgniter\CodeIgniter->runController(Object(App\Controllers\Pages))
#4 C:\wamp64\www\fretrat_website\fretrato-website\system\CodeIgniter.php(312): CodeIgniter\CodeIgniter->handleRequest(NULL, Object(Config\Cache), false)
#5 C:\wamp64\www\fretrat_website\fretrato-website\public\index.php(45): CodeIgniter\CodeIgniter->run()
#6 {main}
CRITICAL - 2020-11-30 23:22:40 --> Undefined variable: pager
#0 C:\wamp64\www\fretrat_website\fretrato-website\app\Views\property_list.php(136): CodeIgniter\Debug\Exceptions->errorHandler(8, 'Undefined varia...', 'C:\\wamp64\\www\\f...', 136, Array)
#1 C:\wamp64\www\fretrat_website\fretrato-website\system\View\View.php(246): include('C:\\wamp64\\www\\f...')
#2 C:\wamp64\www\fretrat_website\fretrato-website\system\Common.php(1119): CodeIgniter\View\View->render('property_list', Array, true)
#3 C:\wamp64\www\fretrat_website\fretrato-website\app\Controllers\BaseController.php(82): view('property_list', Array)
#4 C:\wamp64\www\fretrat_website\fretrato-website\app\Controllers\Pages.php(86): App\Controllers\BaseController->basic_page('property_list', Array)
#5 C:\wamp64\www\fretrat_website\fretrato-website\system\CodeIgniter.php(918): App\Controllers\Pages->property_list()
#6 C:\wamp64\www\fretrat_website\fretrato-website\system\CodeIgniter.php(404): CodeIgniter\CodeIgniter->runController(Object(App\Controllers\Pages))
#7 C:\wamp64\www\fretrat_website\fretrato-website\system\CodeIgniter.php(312): CodeIgniter\CodeIgniter->handleRequest(NULL, Object(Config\Cache), false)
#8 C:\wamp64\www\fretrat_website\fretrato-website\public\index.php(45): CodeIgniter\CodeIgniter->run()
#9 {main}
CRITICAL - 2020-11-30 23:23:11 --> Undefined variable: propertyDatabd
#0 C:\wamp64\www\fretrat_website\fretrato-website\app\Views\my_listing.php(33): CodeIgniter\Debug\Exceptions->errorHandler(8, 'Undefined varia...', 'C:\\wamp64\\www\\f...', 33, Array)
#1 C:\wamp64\www\fretrat_website\fretrato-website\system\View\View.php(246): include('C:\\wamp64\\www\\f...')
#2 C:\wamp64\www\fretrat_website\fretrato-website\system\Common.php(1119): CodeIgniter\View\View->render('my_listing', Array, true)
#3 C:\wamp64\www\fretrat_website\fretrato-website\app\Controllers\BaseController.php(82): view('my_listing', Array)
#4 C:\wamp64\www\fretrat_website\fretrato-website\app\Controllers\Pages.php(181): App\Controllers\BaseController->basic_page('my_listing', Array)
#5 C:\wamp64\www\fretrat_website\fretrato-website\system\CodeIgniter.php(918): App\Controllers\Pages->my_listing()
#6 C:\wamp64\www\fretrat_website\fretrato-website\system\CodeIgniter.php(404): CodeIgniter\CodeIgniter->runController(Object(App\Controllers\Pages))
#7 C:\wamp64\www\fretrat_website\fretrato-website\system\CodeIgniter.php(312): CodeIgniter\CodeIgniter->handleRequest(NULL, Object(Config\Cache), false)
#8 C:\wamp64\www\fretrat_website\fretrato-website\public\index.php(45): CodeIgniter\CodeIgniter->run()
#9 {main}
CRITICAL - 2020-11-30 23:23:22 --> Undefined variable: main_categories
#0 C:\wamp64\www\fretrat_website\fretrato-website\app\Views\my_listing.php(161): CodeIgniter\Debug\Exceptions->errorHandler(8, 'Undefined varia...', 'C:\\wamp64\\www\\f...', 161, Array)
#1 C:\wamp64\www\fretrat_website\fretrato-website\system\View\View.php(246): include('C:\\wamp64\\www\\f...')
#2 C:\wamp64\www\fretrat_website\fretrato-website\system\Common.php(1119): CodeIgniter\View\View->render('my_listing', Array, true)
#3 C:\wamp64\www\fretrat_website\fretrato-website\app\Controllers\BaseController.php(82): view('my_listing', Array)
#4 C:\wamp64\www\fretrat_website\fretrato-website\app\Controllers\Pages.php(181): App\Controllers\BaseController->basic_page('my_listing', Array)
#5 C:\wamp64\www\fretrat_website\fretrato-website\system\CodeIgniter.php(918): App\Controllers\Pages->my_listing()
#6 C:\wamp64\www\fretrat_website\fretrato-website\system\CodeIgniter.php(404): CodeIgniter\CodeIgniter->runController(Object(App\Controllers\Pages))
#7 C:\wamp64\www\fretrat_website\fretrato-website\system\CodeIgniter.php(312): CodeIgniter\CodeIgniter->handleRequest(NULL, Object(Config\Cache), false)
#8 C:\wamp64\www\fretrat_website\fretrato-website\public\index.php(45): CodeIgniter\CodeIgniter->run()
#9 {main}
